[{
  "_id": {
    "$oid": "5fccb3f6683964d75bd4d3b6"
  },
  "deleted": false,
  "nama": "Tommy",
  "created_at": {
    "$date": "2020-12-10T13:26:44.912Z"
  },
  "updated_at": {
    "$date": "2020-12-10T13:26:44.912Z"
  }
},{
  "_id": {
    "$oid": "5fccb406683964d75bd4d3b7"
  },
  "deleted": false,
  "nama": "Firman",
  "created_at": {
    "$date": "2020-12-10T13:26:44.913Z"
  },
  "updated_at": {
    "$date": "2020-12-10T13:26:44.913Z"
  }
},{
  "_id": {
    "$oid": "5fccb416683964d75bd4d3b8"
  },
  "deleted": false,
  "nama": "Ilham",
  "created_at": {
    "$date": "2020-12-10T13:26:44.913Z"
  },
  "updated_at": {
    "$date": "2020-12-10T13:26:44.913Z"
  }
}]